{
  "swagger": "2.0",
  "paths": {
    "/ping": {
      "get": {
        "description": "Ping",
        "operationId": "ping",
        "responses": {
          "200": {
            "description": "Pong.",
            "examples": {
              "application/text": "pong"
            }
          }
        }
      }
    },
    "/v1/monitor": {
      "post": {
        "consumes": [
          "application/json"
        ],
        "summary": "Создать новый монитор для пользователя. При успешном создании монитора, записывает результат в Tokenizator.",
        "operationId": "v1_create_monitor",
        "parameters": [
          {
            "name": "body",
            "in": "body",
            "required": true,
            "schema": {
              "type": "object",
              "$ref": "#/definitions/createMonitorRequest",
              "name": "body"
            }
          }
        ],
        "responses": {
          "200": {
            "description": "Монитор создан, запись добавлена в Tokenizator.",
            "schema": {
              "$ref": "#/responses/Response"
            },
            "examples": {
              "application/json": {
                "data": {
                  "monitor_id": "monitor-0db3cb"
                },
                "message": "Ok",
                "status": 200
              }
            }
          },
          "400": {
            "description": "Некорректный ввод",
            "schema": {
              "$ref": "#/responses/Response"
            },
            "examples": {
              "application/json": {
                "data": {
                  "error": "username is not set"
                },
                "message": "Bad request error",
                "status": 400
              }
            }
          },
          "500": {
            "description": "Произошла внутренняя ошибка",
            "schema": {
              "$ref": "#/responses/Response"
            },
            "examples": {
              "application/json": {
                "data": {
                  "error": "Something went wrong"
                },
                "message": "Internal server error",
                "status": 500
              }
            }
          }
        }
      },
      "delete": {
        "consumes": [
          "application/json"
        ],
        "summary": "Удалить монитор. При успешном удалении монитора, обновляет поле is_active токена для данного монитора на false.",
        "operationId": "v1_delete_monitor",
        "parameters": [
          {
            "name": "body",
            "in": "body",
            "required": true,
            "schema": {
              "type": "object",
              "$ref": "#/definitions/deleteMonitorRequest"
            }
          }
        ],
        "responses": {
          "200": {
            "description": "Монитор удален, запись в Tokenizator обновлена.",
            "schema": {
              "$ref": "#/responses/Response"
            },
            "examples": {
              "application/json": {
                "data": null,
                "message": "Ok",
                "status": 200
              }
            }
          },
          "400": {
            "description": "Некорректный ввод",
            "schema": {
              "$ref": "#/responses/Response"
            },
            "examples": {
              "application/json": {
                "data": {
                  "error": "monitor hash is not set"
                },
                "message": "Bad request error",
                "status": 400
              }
            }
          },
          "500": {
            "description": "Произошла внутренняя ошибка",
            "schema": {
              "$ref": "#/responses/Response"
            },
            "examples": {
              "application/json": {
                "data": {
                  "error": "Something went wrong"
                },
                "message": "Internal server error",
                "status": 500
              }
            }
          }
        }
      }
    },
    "/v1/monitor/parsers": {
      "put": {
        "consumes": [
          "application/json"
        ],
        "summary": "Добавить парсеры в монитор.",
        "operationId": "v1_monitor_parsers_update",
        "parameters": [
          {
            "name": "body",
            "in": "body",
            "required": true,
            "schema": {
              "type": "object",
              "$ref": "#/definitions/updateParsersRequest"
            }
          }
        ],
        "responses": {
          "200": {
            "description": "Парсеры добавлены.",
            "schema": {
              "$ref": "#/responses/Response"
            },
            "examples": {
              "application/json": {
                "data": "monitor parsers were updated",
                "message": "Ok",
                "status": 200
              }
            }
          },
          "400": {
            "description": "Некорректный ввод",
            "schema": {
              "$ref": "#/responses/Response"
            },
            "examples": {
              "application/json": {
                "data": {
                  "error": "monitor hash is not set"
                },
                "message": "Bad request error",
                "status": 400
              }
            }
          },
          "500": {
            "description": "Произошла внутренняя ошибка",
            "schema": {
              "$ref": "#/responses/Response"
            },
            "examples": {
              "application/json": {
                "data": {
                  "error": "Something went wrong"
                },
                "message": "Internal server error",
                "status": 500
              }
            }
          }
        }
      },
      "delete": {
        "consumes": [
          "application/json"
        ],
        "summary": "Удалить парсеры из монитора.",
        "operationId": "v1_monitor_parsers_delete",
        "parameters": [
          {
            "name": "body",
            "in": "body",
            "required": true,
            "schema": {
              "type": "object",
              "$ref": "#/definitions/deleteParsersRequest"
            }
          }
        ],
        "responses": {
          "200": {
            "description": "Парсеры удалены.",
            "schema": {
              "$ref": "#/responses/Response"
            },
            "examples": {
              "application/json": {
                "data": null,
                "message": "Ok",
                "status": 200
              }
            }
          },
          "400": {
            "description": "Некорректный ввод",
            "schema": {
              "$ref": "#/responses/Response"
            },
            "examples": {
              "application/json": {
                "data": {
                  "error": "monitor hash is not set"
                },
                "message": "Bad request error",
                "status": 400
              }
            }
          },
          "500": {
            "description": "Произошла внутренняя ошибка",
            "schema": {
              "$ref": "#/responses/Response"
            },
            "examples": {
              "application/json": {
                "data": {
                  "error": "Something went wrong"
                },
                "message": "Internal server error",
                "status": 500
              }
            }
          }
        }
      }
    },
    "/v1/monitor/parsers/full": {
      "put": {
        "consumes": [
          "application/json"
        ],
        "summary": "Изменить состав парсеров в мониторе. Является комбинацией добавления и удаления парсеров.",
        "operationId": "v1_monitor_parsers_update_full",
        "parameters": [
          {
            "name": "body",
            "in": "body",
            "required": true,
            "schema": {
              "type": "object",
              "$ref": "#/definitions/updateParsersFullRequest"
            }
          }
        ],
        "responses": {
          "200": {
            "description": "Парсеры обновлены.",
            "schema": {
              "$ref": "#/responses/Response"
            },
            "examples": {
              "application/json": {
                "data": "monitor parsers were updated",
                "message": "Ok",
                "status": 200
              }
            }
          },
          "400": {
            "description": "Некорректный ввод",
            "schema": {
              "$ref": "#/responses/Response"
            },
            "examples": {
              "application/json": {
                "data": {
                  "error": "monitor hash is not set"
                },
                "message": "Bad request error",
                "status": 400
              }
            }
          },
          "500": {
            "description": "Произошла внутренняя ошибка",
            "schema": {
              "$ref": "#/responses/Response"
            },
            "examples": {
              "application/json": {
                "data": {
                  "error": "Something went wrong"
                },
                "message": "Internal server error",
                "status": 500
              }
            }
          }
        }
      }
    },
    "/v1/monitors": {
      "put": {
        "description": "Обновить версию монитора для всех текущих мониторов",
        "consumes": [
          "application/json"
        ],
        "operationId": "v1_monitors_update",
        "parameters": [
          {
            "name": "body",
            "in": "body",
            "required": true,
            "schema": {
              "type": "object",
              "$ref": "#/definitions/updateMonitorVersionRequest"
            }
          }
        ],
        "responses": {
          "200": {
            "description": "Мониторы обновлены.",
            "schema": {
              "$ref": "#/responses/Response"
            },
            "examples": {
              "application/json": {
                "data": "Updated monitors",
                "message": "Ok",
                "status": 200
              }
            }
          },
          "400": {
            "description": "Некорректный ввод",
            "schema": {
              "$ref": "#/responses/Response"
            },
            "examples": {
              "application/json": {
                "data": {
                  "error": "monitor hash is not set"
                },
                "message": "Bad request error",
                "status": 400
              }
            }
          },
          "500": {
            "description": "Произошла внутренняя ошибка",
            "schema": {
              "$ref": "#/responses/Response"
            },
            "examples": {
              "application/json": {
                "data": {
                  "error": "Something went wrong"
                },
                "message": "Internal server error",
                "status": 500
              }
            }
          }
        }
      }
    },
    "/v1/parsers/available": {
      "get": {
        "consumes": [
          "application/json"
        ],
        "summary": "Получить доступные парсеры в платформе.",
        "operationId": "v1_parsers_available",
        "responses": {
          "200": {
            "description": "Возвращает доступные парсеры.",
            "schema": {
              "$ref": "#/responses/Response"
            },
            "examples": {
              "application/json": {
                "data": {
                  "parsers": [
                    {
                      "active_version": "latest",
                      "is_enabled": true,
                      "name": "basketshop",
                      "required_version": ""
                    }
                  ]
                },
                "message": "Ok",
                "status": 200
              }
            }
          },
          "500": {
            "description": "Произошла внутренняя ошибка",
            "schema": {
              "$ref": "#/responses/Response"
            },
            "examples": {
              "application/json": {
                "data": {
                  "error": "Something went wrong"
                },
                "message": "Internal server error",
                "status": 500
              }
            }
          }
        }
      }
    },
    "/v1/parsers/refresh": {
      "get": {
        "description": "Менеджер сам обновляет список доступных парсеров каждые 30 минут. Но можно форсированно обновить список парсеров.",
        "consumes": [
          "application/json"
        ],
        "summary": "Обновить доступные парсеры.",
        "operationId": "v1_parsers_refresh",
        "responses": {
          "200": {
            "description": "Список парсеров успешно обновлен",
            "schema": {
              "$ref": "#/responses/Response"
            },
            "examples": {
              "application/json": {
                "data": null,
                "message": "Ok",
                "status": 200
              }
            }
          },
          "500": {
            "description": "Произошла внутренняя ошибка",
            "schema": {
              "$ref": "#/responses/Response"
            },
            "examples": {
              "application/json": {
                "data": {
                  "error": "Something went wrong"
                },
                "message": "Internal server error",
                "status": 500
              }
            }
          }
        }
      }
    }
  },
  "definitions": {
    "createMonitorRequest": {
      "description": "createMonitorRequest схема запроса для создания монитора",
      "type": "object",
      "required": [
        "username"
      ],
      "properties": {
        "dryRun": {
          "description": "Флаг для тестирования ручки. Если указан, то монитор не будет создан в облаке, но monitor hash вернется.",
          "type": "boolean",
          "x-go-name": "DryRun",
          "example": false
        },
        "parsers": {
          "description": "Массив парсеров, которые будут добавлены при создании монитора.",
          "type": "array",
          "items": {
            "type": "string"
          },
          "x-go-name": "Parsers",
          "example": []
        },
        "username": {
          "description": "Имя пользователя в платформе.",
          "type": "string",
          "x-go-name": "Username",
          "example": "Dilan"
        }
      },
      "x-go-package": "monitor_manager/pkg/server/v1"
    },
    "deleteMonitorRequest": {
      "description": "deleteMonitorRequest схема запроса для удаления монитора",
      "type": "object",
      "required": [
        "monitor"
      ],
      "properties": {
        "monitor": {
          "description": "Хэш монитора",
          "type": "string",
          "x-go-name": "Monitor",
          "example": "monitor-1d3a49"
        }
      },
      "x-go-package": "monitor_manager/pkg/server/v1"
    },
    "deleteParsersRequest": {
      "description": "deleteParsersRequest схема запроса для удаления парсеров из монитора",
      "type": "object",
      "required": [
        "monitor",
        "parsers"
      ],
      "properties": {
        "monitor": {
          "description": "Хэш монитора",
          "type": "string",
          "x-go-name": "Monitor",
          "example": "monitor-1d3a49"
        },
        "parsers": {
          "description": "Названия парсеров, которые необходимо удалить",
          "type": "array",
          "items": {
            "type": "string"
          },
          "x-go-name": "Parsers",
          "example": [
            "basketshop",
            "lamoda"
          ]
        }
      },
      "x-go-package": "monitor_manager/pkg/server/v1"
    },
    "updateMonitorVersionRequest": {
      "description": "updateMonitorVersionRequest схема запроса для создания монитора",
      "type": "object",
      "properties": {
        "dryRun": {
          "description": "Флаг для тестирования ручки. Если указан, то монитор не будет создан в облаке, но monitor hash вернется.",
          "type": "boolean",
          "x-go-name": "DryRun",
          "example": false
        },
        "version": {
          "description": "Версия монитора, который должен быть задеплоен. Параметр необходим для отката изменений.",
          "type": "string",
          "x-go-name": "Version",
          "example": "v0.0.5"
        }
      },
      "x-go-package": "monitor_manager/pkg/server/v1"
    },
    "updateParsersFullRequest": {
      "description": "updateParsersFullRequest схема запроса для изменения состава парсеров в мониторе",
      "type": "object",
      "required": [
        "monitor",
        "parsers"
      ],
      "properties": {
        "monitor": {
          "description": "Хэш монитора",
          "type": "string",
          "x-go-name": "Monitor",
          "example": "monitor-1d3a49"
        },
        "parsers": {
          "description": "Массив парсеров в формате \"name\": bool. True для добавления парсера, False для удаления.\nЕсли парсер уже существует, он не будет добавлен еще раз.\nЕсли парсера нет в мониторе, изменений не произойдет.",
          "type": "object",
          "additionalProperties": {
            "type": "boolean"
          },
          "x-go-name": "Parsers",
          "example": {
            "basketshop": true,
            "lamoda": false
          }
        }
      },
      "x-go-package": "monitor_manager/pkg/server/v1"
    },
    "updateParsersRequest": {
      "description": "updateParsersRequest схема запроса для добавления парсеров в монитор",
      "type": "object",
      "required": [
        "monitor",
        "parsers"
      ],
      "properties": {
        "monitor": {
          "description": "Хэш монитора",
          "type": "string",
          "x-go-name": "Monitor",
          "example": "monitor-1d3a49"
        },
        "parsers": {
          "description": "Массив парсеров, которые нужно добавить.\nЕсли парсер уже существует, он не будет добавлен еще раз.",
          "type": "array",
          "items": {
            "type": "string"
          },
          "x-go-name": "Parsers",
          "example": [
            "basketshop",
            "lamoda"
          ]
        }
      },
      "x-go-package": "monitor_manager/pkg/server/v1"
    }
  },
  "responses": {
    "Response": {
      "description": "",
      "schema": {
        "type": "object"
      }
    }
  }
}