{
  "paths": {
    "/ping": {
      "get": {
        "summary": "\u041f\u0438\u043d\u0433\u0430\u043d\u0443\u0442\u044c \u0441\u0435\u0440\u0432\u0438\u0441",
        "responses": {
          "200": {
            "description": "Pong",
            "examples": {
              "application/json": "pong"
            }
          }
        }
      }
    },
    "/cache": {
      "get": {},
      "post": {},
      "delete": {},
      "put": {}
    },
    "/products": {
      "get": {}
    }
  },
  "info": {
    "title": "Parsers",
    "version": "v0.0.7"
  },
  "swagger": "2.0"
}